module gitlab.com/seagulls/mim

go 1.19

require github.com/frankban/quicktest v1.14.3

require (
	github.com/google/go-cmp v0.5.7 // indirect
	github.com/kr/pretty v0.3.0 // indirect
	github.com/kr/text v0.2.0 // indirect
	github.com/rogpeppe/go-internal v1.6.1 // indirect
	golang.org/x/xerrors v0.0.0-20191204190536-9bdfabe68543 // indirect
)
